﻿{
  "rule_1":
  {
       "if":
       {
          "cond": "equal",
          "field": "egrul.налогообложение",
          "value": "ОСНО"
       },
       "then":
       {
          "type": "result",
          "value": 1,
          "message": "налогообложение соответстует"
       },
       "else":
       {
          "type": "rule",
          "name": "rule_2"
       },
       "not_found":
       {
          "type": "result",
          "value": 4,
          "message": "Для данного юридического лица не указан режим налогообложения. Укажите используемую вами систему налогообложения, чтобы мы могли проверить на соответствие требованиям на получение лицензии",
          "action": "Указать"
       }
  },

  "rule_2":
  {
       "if":
       {
          "cond": "equal",
          "field": "egrul.налогообложение",
          "value": "УСН"
       },
       "then":
       {
          "type": "result",
          "value": 2,
          "message": "ЭРГИУС рекомендует перейти на ОСНО"
       },
       "else":
       {
          "type": "result",
          "value": 3,
          "message": "Система налогообложения не соответствует",
          "action": "change_tax"
       }

  }


}